{
  "project_info": {
    "project_number": "137753871988",
    "firebase_url": "https://hearthbook-2dbd4.firebaseio.com",
    "project_id": "hearthbook-2dbd4",
    "storage_bucket": "hearthbook-2dbd4.appspot.com"
  },
  "client": [
    {
      "client_info": {
        "mobilesdk_app_id": "1:137753871988:android:353b4c9223d72479",
        "android_client_info": {
          "package_name": "com.lifeof843.hearthbook"
        }
      },
      "oauth_client": [
        {
          "client_id": "137753871988-onaunhds2r9b7qnknikblvhlnuckb04h.apps.googleusercontent.com",
          "client_type": 1,
          "android_info": {
            "package_name": "com.lifeof843.hearthbook",
            "certificate_hash": "b7ac2398aa0b5de17b6d94eefa054859c1d89025"
          }
        },
        {
          "client_id": "137753871988-054020hnmohtbqcqebsee2f25c6oq0bq.apps.googleusercontent.com",
          "client_type": 3
        }
      ],
      "api_key": [
        {
          "current_key": "AIzaSyAkRp5ROBkIZq0k4aQr8i53R2VazOhPO44"
        }
      ],
      "services": {
        "analytics_service": {
          "status": 1
        },
        "appinvite_service": {
          "status": 2,
          "other_platform_oauth_client": [
            {
              "client_id": "137753871988-054020hnmohtbqcqebsee2f25c6oq0bq.apps.googleusercontent.com",
              "client_type": 3
            }
          ]
        },
        "ads_service": {
          "status": 2
        }
      }
    }
  ],
  "configuration_version": "1"
}